(kicad_sch (version 20211123) (generator eeschema)

  (uuid b8689fcc-202e-4cbc-81ff-c4f8e8e46276)

  (paper "A4")

  (lib_symbols
    (symbol "LED:WS2812B" (pin_names (offset 0.254)) (in_bom yes) (on_board yes)
      (property "Reference" "D" (id 0) (at 5.08 5.715 0)
        (effects (font (size 1.27 1.27)) (justify right bottom))
      )
      (property "Value" "WS2812B" (id 1) (at 1.27 -5.715 0)
        (effects (font (size 1.27 1.27)) (justify left top))
      )
      (property "Footprint" "LED_SMD:LED_WS2812B_PLCC4_5.0x5.0mm_P3.2mm" (id 2) (at 1.27 -7.62 0)
        (effects (font (size 1.27 1.27)) (justify left top) hide)
      )
      (property "Datasheet" "https://cdn-shop.adafruit.com/datasheets/WS2812B.pdf" (id 3) (at 2.54 -9.525 0)
        (effects (font (size 1.27 1.27)) (justify left top) hide)
      )
      (property "ki_keywords" "RGB LED NeoPixel addressable" (id 4) (at 0 0 0)
        (effects (font (size 1.27 1.27)) hide)
      )
      (property "ki_description" "RGB LED with integrated controller" (id 5) (at 0 0 0)
        (effects (font (size 1.27 1.27)) hide)
      )
      (property "ki_fp_filters" "LED*WS2812*PLCC*5.0x5.0mm*P3.2mm*" (id 6) (at 0 0 0)
        (effects (font (size 1.27 1.27)) hide)
      )
      (symbol "WS2812B_0_0"
        (text "RGB" (at 2.286 -4.191 0)
          (effects (font (size 0.762 0.762)))
        )
      )
      (symbol "WS2812B_0_1"
        (polyline
          (pts
            (xy 1.27 -3.556)
            (xy 1.778 -3.556)
          )
          (stroke (width 0) (type default) (color 0 0 0 0))
          (fill (type none))
        )
        (polyline
          (pts
            (xy 1.27 -2.54)
            (xy 1.778 -2.54)
          )
          (stroke (width 0) (type default) (color 0 0 0 0))
          (fill (type none))
        )
        (polyline
          (pts
            (xy 4.699 -3.556)
            (xy 2.667 -3.556)
          )
          (stroke (width 0) (type default) (color 0 0 0 0))
          (fill (type none))
        )
        (polyline
          (pts
            (xy 2.286 -2.54)
            (xy 1.27 -3.556)
            (xy 1.27 -3.048)
          )
          (stroke (width 0) (type default) (color 0 0 0 0))
          (fill (type none))
        )
        (polyline
          (pts
            (xy 2.286 -1.524)
            (xy 1.27 -2.54)
            (xy 1.27 -2.032)
          )
          (stroke (width 0) (type default) (color 0 0 0 0))
          (fill (type none))
        )
        (polyline
          (pts
            (xy 3.683 -1.016)
            (xy 3.683 -3.556)
            (xy 3.683 -4.064)
          )
          (stroke (width 0) (type default) (color 0 0 0 0))
          (fill (type none))
        )
        (polyline
          (pts
            (xy 4.699 -1.524)
            (xy 2.667 -1.524)
            (xy 3.683 -3.556)
            (xy 4.699 -1.524)
          )
          (stroke (width 0) (type default) (color 0 0 0 0))
          (fill (type none))
        )
        (rectangle (start 5.08 5.08) (end -5.08 -5.08)
          (stroke (width 0.254) (type default) (color 0 0 0 0))
          (fill (type background))
        )
      )
      (symbol "WS2812B_1_1"
        (pin power_in line (at 0 7.62 270) (length 2.54)
          (name "VDD" (effects (font (size 1.27 1.27))))
          (number "1" (effects (font (size 1.27 1.27))))
        )
        (pin output line (at 7.62 0 180) (length 2.54)
          (name "DOUT" (effects (font (size 1.27 1.27))))
          (number "2" (effects (font (size 1.27 1.27))))
        )
        (pin power_in line (at 0 -7.62 90) (length 2.54)
          (name "VSS" (effects (font (size 1.27 1.27))))
          (number "3" (effects (font (size 1.27 1.27))))
        )
        (pin input line (at -7.62 0 0) (length 2.54)
          (name "DIN" (effects (font (size 1.27 1.27))))
          (number "4" (effects (font (size 1.27 1.27))))
        )
      )
    )
    (symbol "power:+5V" (power) (pin_names (offset 0)) (in_bom yes) (on_board yes)
      (property "Reference" "#PWR" (id 0) (at 0 -3.81 0)
        (effects (font (size 1.27 1.27)) hide)
      )
      (property "Value" "+5V" (id 1) (at 0 3.556 0)
        (effects (font (size 1.27 1.27)))
      )
      (property "Footprint" "" (id 2) (at 0 0 0)
        (effects (font (size 1.27 1.27)) hide)
      )
      (property "Datasheet" "" (id 3) (at 0 0 0)
        (effects (font (size 1.27 1.27)) hide)
      )
      (property "ki_keywords" "power-flag" (id 4) (at 0 0 0)
        (effects (font (size 1.27 1.27)) hide)
      )
      (property "ki_description" "Power symbol creates a global label with name \"+5V\"" (id 5) (at 0 0 0)
        (effects (font (size 1.27 1.27)) hide)
      )
      (symbol "+5V_0_1"
        (polyline
          (pts
            (xy -0.762 1.27)
            (xy 0 2.54)
          )
          (stroke (width 0) (type default) (color 0 0 0 0))
          (fill (type none))
        )
        (polyline
          (pts
            (xy 0 0)
            (xy 0 2.54)
          )
          (stroke (width 0) (type default) (color 0 0 0 0))
          (fill (type none))
        )
        (polyline
          (pts
            (xy 0 2.54)
            (xy 0.762 1.27)
          )
          (stroke (width 0) (type default) (color 0 0 0 0))
          (fill (type none))
        )
      )
      (symbol "+5V_1_1"
        (pin power_in line (at 0 0 90) (length 0) hide
          (name "+5V" (effects (font (size 1.27 1.27))))
          (number "1" (effects (font (size 1.27 1.27))))
        )
      )
    )
    (symbol "power:GND" (power) (pin_names (offset 0)) (in_bom yes) (on_board yes)
      (property "Reference" "#PWR" (id 0) (at 0 -6.35 0)
        (effects (font (size 1.27 1.27)) hide)
      )
      (property "Value" "GND" (id 1) (at 0 -3.81 0)
        (effects (font (size 1.27 1.27)))
      )
      (property "Footprint" "" (id 2) (at 0 0 0)
        (effects (font (size 1.27 1.27)) hide)
      )
      (property "Datasheet" "" (id 3) (at 0 0 0)
        (effects (font (size 1.27 1.27)) hide)
      )
      (property "ki_keywords" "power-flag" (id 4) (at 0 0 0)
        (effects (font (size 1.27 1.27)) hide)
      )
      (property "ki_description" "Power symbol creates a global label with name \"GND\" , ground" (id 5) (at 0 0 0)
        (effects (font (size 1.27 1.27)) hide)
      )
      (symbol "GND_0_1"
        (polyline
          (pts
            (xy 0 0)
            (xy 0 -1.27)
            (xy 1.27 -1.27)
            (xy 0 -2.54)
            (xy -1.27 -1.27)
            (xy 0 -1.27)
          )
          (stroke (width 0) (type default) (color 0 0 0 0))
          (fill (type none))
        )
      )
      (symbol "GND_1_1"
        (pin power_in line (at 0 0 270) (length 0) hide
          (name "GND" (effects (font (size 1.27 1.27))))
          (number "1" (effects (font (size 1.27 1.27))))
        )
      )
    )
  )

  (junction (at 118.11 111.76) (diameter 0) (color 0 0 0 0)
    (uuid 0354e871-f000-46f0-8408-bba90d6b9796)
  )
  (junction (at 58.42 135.89) (diameter 0) (color 0 0 0 0)
    (uuid 05dcb17b-4879-4b22-a401-4b797f1abd92)
  )
  (junction (at 93.98 24.13) (diameter 0) (color 0 0 0 0)
    (uuid 09da7f8a-c269-48d0-adde-58b7bb9d8204)
  )
  (junction (at 240.03 96.52) (diameter 0) (color 0 0 0 0)
    (uuid 09ded55b-4155-48ad-914c-96097abd80a4)
  )
  (junction (at 118.11 74.93) (diameter 0) (color 0 0 0 0)
    (uuid 0ce65156-45a8-4c36-b96a-b31d70582562)
  )
  (junction (at 93.98 39.37) (diameter 0) (color 0 0 0 0)
    (uuid 0ec31343-6d99-4698-b87b-3e02fb28d370)
  )
  (junction (at 154.94 96.52) (diameter 0) (color 0 0 0 0)
    (uuid 111e2cba-907c-4c52-a5af-8205ae936f75)
  )
  (junction (at 215.9 59.69) (diameter 0) (color 0 0 0 0)
    (uuid 11d76747-bda7-4c8a-b3a9-c547af170a74)
  )
  (junction (at 142.24 111.76) (diameter 0) (color 0 0 0 0)
    (uuid 1d938f66-1786-4033-ad01-38d2202f48db)
  )
  (junction (at 167.64 74.93) (diameter 0) (color 0 0 0 0)
    (uuid 416cfe54-140c-440e-bcd0-3156689a7b12)
  )
  (junction (at 142.24 74.93) (diameter 0) (color 0 0 0 0)
    (uuid 42f7d910-bfcc-4f19-b8f0-f41276848795)
  )
  (junction (at 191.77 111.76) (diameter 0) (color 0 0 0 0)
    (uuid 44a97aef-acb3-49ed-a28b-105126e6581f)
  )
  (junction (at 118.11 39.37) (diameter 0) (color 0 0 0 0)
    (uuid 470dea99-9d84-4b2c-b5ab-e9c213ec8341)
  )
  (junction (at 215.9 96.52) (diameter 0) (color 0 0 0 0)
    (uuid 48e139de-bed4-4189-b351-e27ecd8be899)
  )
  (junction (at 93.98 111.76) (diameter 0) (color 0 0 0 0)
    (uuid 5209a891-1367-4401-84e2-6daf94c06b40)
  )
  (junction (at 154.94 74.93) (diameter 0) (color 0 0 0 0)
    (uuid 54b31bc3-6a1e-4173-9b93-2c4310a2fd43)
  )
  (junction (at 240.03 59.69) (diameter 0) (color 0 0 0 0)
    (uuid 558ef373-1d79-42dc-abf2-bfdc42d2fa74)
  )
  (junction (at 191.77 74.93) (diameter 0) (color 0 0 0 0)
    (uuid 577488bb-8f02-448c-b387-7965f25ede7c)
  )
  (junction (at 215.9 39.37) (diameter 0) (color 0 0 0 0)
    (uuid 58eaf185-fdea-4d79-b4bb-1a95e81b80cb)
  )
  (junction (at 154.94 59.69) (diameter 0) (color 0 0 0 0)
    (uuid 632096d5-8882-4c12-83bb-774cbdfdaa93)
  )
  (junction (at 215.9 24.13) (diameter 0) (color 0 0 0 0)
    (uuid 6a7e982b-73ff-4b24-b080-1708178e9a2e)
  )
  (junction (at 69.85 74.93) (diameter 0) (color 0 0 0 0)
    (uuid 6f16b20e-0ab9-46a4-9e9c-e258c737d864)
  )
  (junction (at 142.24 39.37) (diameter 0) (color 0 0 0 0)
    (uuid 73226c7e-6270-4924-b565-66d0ed723f96)
  )
  (junction (at 167.64 39.37) (diameter 0) (color 0 0 0 0)
    (uuid 77e3555a-e0ac-4ee5-af6c-eeef24a90be8)
  )
  (junction (at 93.98 96.52) (diameter 0) (color 0 0 0 0)
    (uuid 77ec914a-150d-418f-ba6b-982b7030ffc3)
  )
  (junction (at 154.94 39.37) (diameter 0) (color 0 0 0 0)
    (uuid 810008e1-2b09-4844-a0dd-31dd6bd1df70)
  )
  (junction (at 69.85 111.76) (diameter 0) (color 0 0 0 0)
    (uuid 82327de8-52dd-4801-839b-4c9fc7ce11a5)
  )
  (junction (at 93.98 74.93) (diameter 0) (color 0 0 0 0)
    (uuid 876a298f-98e2-4f7b-b682-7fbd79cd259e)
  )
  (junction (at 191.77 39.37) (diameter 0) (color 0 0 0 0)
    (uuid 89bbd605-0f7d-45ec-a8b4-98f4929b3e94)
  )
  (junction (at 191.77 59.69) (diameter 0) (color 0 0 0 0)
    (uuid 8b75bc84-4980-49fa-be66-4d33e684680e)
  )
  (junction (at 167.64 24.13) (diameter 0) (color 0 0 0 0)
    (uuid 962d28c7-c819-4ac7-89a8-1288d183401b)
  )
  (junction (at 167.64 96.52) (diameter 0) (color 0 0 0 0)
    (uuid 99446cad-4aba-41ec-8ae7-909d871a4445)
  )
  (junction (at 191.77 96.52) (diameter 0) (color 0 0 0 0)
    (uuid 9a63ff17-759c-4c71-9e52-b4acafab0f29)
  )
  (junction (at 191.77 24.13) (diameter 0) (color 0 0 0 0)
    (uuid 9d3c7b83-130c-42be-b90f-fec1c3d90417)
  )
  (junction (at 142.24 96.52) (diameter 0) (color 0 0 0 0)
    (uuid a152b28c-cf48-4b52-be31-c2f4a05384ec)
  )
  (junction (at 118.11 24.13) (diameter 0) (color 0 0 0 0)
    (uuid a6f8e16d-b613-4ab5-b08c-c60a6d1148d6)
  )
  (junction (at 240.03 111.76) (diameter 0) (color 0 0 0 0)
    (uuid a9212ba0-d66b-43d1-9ae8-26926c4b1b11)
  )
  (junction (at 240.03 74.93) (diameter 0) (color 0 0 0 0)
    (uuid ad57a034-64ef-4ee1-828b-62845e8ee254)
  )
  (junction (at 240.03 24.13) (diameter 0) (color 0 0 0 0)
    (uuid ada2b57f-e04e-40d2-b9b8-8b52e3e5db49)
  )
  (junction (at 167.64 59.69) (diameter 0) (color 0 0 0 0)
    (uuid b2f8e204-6b6d-4295-8d05-9c664378904b)
  )
  (junction (at 240.03 39.37) (diameter 0) (color 0 0 0 0)
    (uuid b9dd5f92-7f52-4f74-b94f-b55e438e5c71)
  )
  (junction (at 118.11 59.69) (diameter 0) (color 0 0 0 0)
    (uuid bd880574-0be5-4755-96e8-a1b6f1f85e2b)
  )
  (junction (at 154.94 24.13) (diameter 0) (color 0 0 0 0)
    (uuid c121bd44-4a82-4d18-91fa-8528528b9e14)
  )
  (junction (at 58.42 151.13) (diameter 0) (color 0 0 0 0)
    (uuid c88a680a-ffab-47f4-a112-39714aef5944)
  )
  (junction (at 69.85 24.13) (diameter 0) (color 0 0 0 0)
    (uuid caba9cd7-988f-4a62-9d0e-af3bd42aff39)
  )
  (junction (at 69.85 96.52) (diameter 0) (color 0 0 0 0)
    (uuid cc9bb0d5-8068-40e2-a87d-7499b07ade2b)
  )
  (junction (at 154.94 111.76) (diameter 0) (color 0 0 0 0)
    (uuid d1868de9-aada-4dc7-964b-c94a9815dca7)
  )
  (junction (at 215.9 74.93) (diameter 0) (color 0 0 0 0)
    (uuid d1c2f58f-7020-4050-b7f0-879a297b5c63)
  )
  (junction (at 167.64 111.76) (diameter 0) (color 0 0 0 0)
    (uuid d93d45df-e820-4256-9674-66ece867bfa1)
  )
  (junction (at 118.11 96.52) (diameter 0) (color 0 0 0 0)
    (uuid d98ba276-8806-4923-9e09-721e285f1f55)
  )
  (junction (at 215.9 111.76) (diameter 0) (color 0 0 0 0)
    (uuid db31b8a9-fe75-4629-94a8-45295db458c0)
  )
  (junction (at 69.85 39.37) (diameter 0) (color 0 0 0 0)
    (uuid e744ebc8-df13-4ea8-ad42-3d3aef74ec4e)
  )
  (junction (at 142.24 24.13) (diameter 0) (color 0 0 0 0)
    (uuid ece2c0ea-e5e2-4c9b-bb68-5b289dca94d2)
  )
  (junction (at 69.85 59.69) (diameter 0) (color 0 0 0 0)
    (uuid f2aebf8d-c8c9-4458-af9c-c832a5ddaf51)
  )
  (junction (at 142.24 59.69) (diameter 0) (color 0 0 0 0)
    (uuid f520480e-cc03-4402-b9f5-4e9355f68e17)
  )
  (junction (at 93.98 59.69) (diameter 0) (color 0 0 0 0)
    (uuid f95022f2-64f5-4224-b51b-911e57826066)
  )

  (wire (pts (xy 58.42 135.89) (xy 69.85 135.89))
    (stroke (width 0) (type default) (color 0 0 0 0))
    (uuid 011a6cdb-de53-469c-b5af-5f0eb76874fd)
  )
  (wire (pts (xy 223.52 104.14) (xy 232.41 104.14))
    (stroke (width 0) (type default) (color 0 0 0 0))
    (uuid 0226c978-3e6e-454b-b679-a67337ba03a9)
  )
  (wire (pts (xy 69.85 39.37) (xy 93.98 39.37))
    (stroke (width 0) (type default) (color 0 0 0 0))
    (uuid 0729cc32-0759-41d1-abaa-62b23847d1b0)
  )
  (wire (pts (xy 142.24 59.69) (xy 154.94 59.69))
    (stroke (width 0) (type default) (color 0 0 0 0))
    (uuid 0850094c-ab06-4ad8-8b3b-79833644b820)
  )
  (wire (pts (xy 69.85 74.93) (xy 93.98 74.93))
    (stroke (width 0) (type default) (color 0 0 0 0))
    (uuid 0a960a0a-6d7c-46c3-a99f-e119a2a43baf)
  )
  (wire (pts (xy 167.64 39.37) (xy 191.77 39.37))
    (stroke (width 0) (type default) (color 0 0 0 0))
    (uuid 0bd5b10a-7681-4681-8317-3b5ec70b9d90)
  )
  (wire (pts (xy 53.34 104.14) (xy 62.23 104.14))
    (stroke (width 0) (type default) (color 0 0 0 0))
    (uuid 0f790ba2-05c3-4c83-9831-8c90d0fda9c3)
  )
  (wire (pts (xy 45.72 96.52) (xy 69.85 96.52))
    (stroke (width 0) (type default) (color 0 0 0 0))
    (uuid 11ddc901-d629-4051-a9fb-2909cb0f4dc1)
  )
  (wire (pts (xy 271.78 123.19) (xy 38.1 123.19))
    (stroke (width 0) (type default) (color 0 0 0 0))
    (uuid 17891309-3466-4669-9578-c4007528ac04)
  )
  (wire (pts (xy 77.47 67.31) (xy 86.36 67.31))
    (stroke (width 0) (type default) (color 0 0 0 0))
    (uuid 18b47f5a-af93-4bb7-899a-c72d831f0515)
  )
  (wire (pts (xy 154.94 74.93) (xy 154.94 78.74))
    (stroke (width 0) (type default) (color 0 0 0 0))
    (uuid 1ae2e35a-8ebe-4f67-840d-d4e941f811f9)
  )
  (wire (pts (xy 154.94 24.13) (xy 167.64 24.13))
    (stroke (width 0) (type default) (color 0 0 0 0))
    (uuid 1c15d3a6-34a1-4b5d-8129-1d4aae49f24f)
  )
  (wire (pts (xy 175.26 104.14) (xy 184.15 104.14))
    (stroke (width 0) (type default) (color 0 0 0 0))
    (uuid 22354242-0660-4277-baa7-37122a68dd00)
  )
  (wire (pts (xy 154.94 59.69) (xy 167.64 59.69))
    (stroke (width 0) (type default) (color 0 0 0 0))
    (uuid 22aa686a-1761-48fe-94e4-83737dc71035)
  )
  (wire (pts (xy 247.65 67.31) (xy 256.54 67.31))
    (stroke (width 0) (type default) (color 0 0 0 0))
    (uuid 278d4c7a-3407-4633-9037-219653061525)
  )
  (wire (pts (xy 154.94 74.93) (xy 167.64 74.93))
    (stroke (width 0) (type default) (color 0 0 0 0))
    (uuid 2981e987-5530-4cd4-b24f-4e8ee4ed0022)
  )
  (wire (pts (xy 191.77 59.69) (xy 215.9 59.69))
    (stroke (width 0) (type default) (color 0 0 0 0))
    (uuid 2997940d-a9e1-4efd-a094-3f4640599bc9)
  )
  (wire (pts (xy 101.6 104.14) (xy 110.49 104.14))
    (stroke (width 0) (type default) (color 0 0 0 0))
    (uuid 29a6fd7b-a36b-45db-bcdc-6f25151fcbdf)
  )
  (wire (pts (xy 247.65 31.75) (xy 256.54 31.75))
    (stroke (width 0) (type default) (color 0 0 0 0))
    (uuid 2c83755f-a681-47cd-9ce6-2ad0c77d0fc8)
  )
  (wire (pts (xy 118.11 59.69) (xy 142.24 59.69))
    (stroke (width 0) (type default) (color 0 0 0 0))
    (uuid 344b5359-cb92-4e51-a144-5d434ee218fd)
  )
  (wire (pts (xy 240.03 74.93) (xy 264.16 74.93))
    (stroke (width 0) (type default) (color 0 0 0 0))
    (uuid 36d7cab1-9878-48a7-b371-daee88609fe6)
  )
  (wire (pts (xy 154.94 111.76) (xy 167.64 111.76))
    (stroke (width 0) (type default) (color 0 0 0 0))
    (uuid 37629b79-9b6d-4047-b048-ee99a3fbf7cb)
  )
  (wire (pts (xy 93.98 24.13) (xy 118.11 24.13))
    (stroke (width 0) (type default) (color 0 0 0 0))
    (uuid 3877dd09-6d4a-429c-8d0e-1a3cdaad0e26)
  )
  (wire (pts (xy 118.11 111.76) (xy 142.24 111.76))
    (stroke (width 0) (type default) (color 0 0 0 0))
    (uuid 39565e4a-8c74-43c9-bfb9-add6c0bc755f)
  )
  (wire (pts (xy 45.72 111.76) (xy 69.85 111.76))
    (stroke (width 0) (type default) (color 0 0 0 0))
    (uuid 3b87a980-3f7f-4289-8aee-0fb18e931737)
  )
  (wire (pts (xy 93.98 59.69) (xy 118.11 59.69))
    (stroke (width 0) (type default) (color 0 0 0 0))
    (uuid 3bb09c23-9fe9-4168-babc-7ada984cb4cf)
  )
  (wire (pts (xy 240.03 39.37) (xy 264.16 39.37))
    (stroke (width 0) (type default) (color 0 0 0 0))
    (uuid 4384484a-d58c-4610-b70e-981296913f50)
  )
  (wire (pts (xy 247.65 104.14) (xy 256.54 104.14))
    (stroke (width 0) (type default) (color 0 0 0 0))
    (uuid 43e1c122-1181-4bf4-92ac-51a15a239b24)
  )
  (wire (pts (xy 223.52 67.31) (xy 232.41 67.31))
    (stroke (width 0) (type default) (color 0 0 0 0))
    (uuid 4466a867-cb0b-4fc9-9cdc-d67d35d9abe3)
  )
  (wire (pts (xy 45.72 135.89) (xy 58.42 135.89))
    (stroke (width 0) (type default) (color 0 0 0 0))
    (uuid 4636344c-794c-4945-977d-8a257833f7ff)
  )
  (wire (pts (xy 271.78 104.14) (xy 271.78 123.19))
    (stroke (width 0) (type default) (color 0 0 0 0))
    (uuid 46de5ef2-24f9-423c-9e48-8f61cc0c8dde)
  )
  (wire (pts (xy 154.94 111.76) (xy 154.94 115.57))
    (stroke (width 0) (type default) (color 0 0 0 0))
    (uuid 4cd526ac-a4b0-47ec-9eab-2b980c613a48)
  )
  (wire (pts (xy 167.64 24.13) (xy 191.77 24.13))
    (stroke (width 0) (type default) (color 0 0 0 0))
    (uuid 4f74cb02-cc17-404a-8649-3873f5c66d09)
  )
  (wire (pts (xy 215.9 74.93) (xy 240.03 74.93))
    (stroke (width 0) (type default) (color 0 0 0 0))
    (uuid 52894161-6931-4705-bf7b-77feaf984e64)
  )
  (wire (pts (xy 118.11 96.52) (xy 142.24 96.52))
    (stroke (width 0) (type default) (color 0 0 0 0))
    (uuid 56377267-c4c4-458a-8a79-17085353c743)
  )
  (wire (pts (xy 154.94 21.59) (xy 154.94 24.13))
    (stroke (width 0) (type default) (color 0 0 0 0))
    (uuid 56d9ee6c-2321-40ff-8eff-fe898ef02b6f)
  )
  (wire (pts (xy 167.64 96.52) (xy 191.77 96.52))
    (stroke (width 0) (type default) (color 0 0 0 0))
    (uuid 5a34f00a-3b02-456f-8f82-620536592023)
  )
  (wire (pts (xy 215.9 24.13) (xy 240.03 24.13))
    (stroke (width 0) (type default) (color 0 0 0 0))
    (uuid 5cf93020-8271-4da6-a67e-fb4c6c59ef6e)
  )
  (wire (pts (xy 271.78 86.36) (xy 38.1 86.36))
    (stroke (width 0) (type default) (color 0 0 0 0))
    (uuid 5ddf6371-edd5-4aaf-ae46-c0ceeb69502a)
  )
  (wire (pts (xy 271.78 31.75) (xy 271.78 50.8))
    (stroke (width 0) (type default) (color 0 0 0 0))
    (uuid 613ea707-abc7-43f5-9287-ff178e1c349b)
  )
  (wire (pts (xy 215.9 59.69) (xy 240.03 59.69))
    (stroke (width 0) (type default) (color 0 0 0 0))
    (uuid 6219d13d-e1ac-4216-bb9c-2d65db521cec)
  )
  (wire (pts (xy 118.11 74.93) (xy 142.24 74.93))
    (stroke (width 0) (type default) (color 0 0 0 0))
    (uuid 6631b09e-f46e-4031-8e5b-a5712338b08e)
  )
  (wire (pts (xy 149.86 31.75) (xy 160.02 31.75))
    (stroke (width 0) (type default) (color 0 0 0 0))
    (uuid 6efa2d45-d9e0-4f11-95d5-2b32cf1a4f2d)
  )
  (wire (pts (xy 77.47 104.14) (xy 86.36 104.14))
    (stroke (width 0) (type default) (color 0 0 0 0))
    (uuid 76f7e9be-f1d3-407b-972f-f54e948098f1)
  )
  (wire (pts (xy 101.6 31.75) (xy 110.49 31.75))
    (stroke (width 0) (type default) (color 0 0 0 0))
    (uuid 78fb0830-934a-47da-a6ad-8087bfe0fc14)
  )
  (wire (pts (xy 191.77 24.13) (xy 215.9 24.13))
    (stroke (width 0) (type default) (color 0 0 0 0))
    (uuid 7a43e3b2-da2f-4a0d-8aa4-830fcd260cf0)
  )
  (wire (pts (xy 38.1 123.19) (xy 38.1 143.51))
    (stroke (width 0) (type default) (color 0 0 0 0))
    (uuid 7e0a747c-a9dd-4b4b-b66e-0127d74759d7)
  )
  (wire (pts (xy 240.03 24.13) (xy 264.16 24.13))
    (stroke (width 0) (type default) (color 0 0 0 0))
    (uuid 7ea444bb-a045-4352-a66f-a39e83a9395b)
  )
  (wire (pts (xy 154.94 39.37) (xy 154.94 43.18))
    (stroke (width 0) (type default) (color 0 0 0 0))
    (uuid 80a8d2d0-daee-49d1-a15f-0cd4526efcaa)
  )
  (wire (pts (xy 167.64 59.69) (xy 191.77 59.69))
    (stroke (width 0) (type default) (color 0 0 0 0))
    (uuid 82048e75-ab27-4573-8ff3-724ca87e3cbb)
  )
  (wire (pts (xy 93.98 74.93) (xy 118.11 74.93))
    (stroke (width 0) (type default) (color 0 0 0 0))
    (uuid 857aed93-ff5f-42d6-b8de-17bda90d64ea)
  )
  (wire (pts (xy 45.72 74.93) (xy 69.85 74.93))
    (stroke (width 0) (type default) (color 0 0 0 0))
    (uuid 8913d4eb-537f-4b4e-8957-ed5f366a6caf)
  )
  (wire (pts (xy 58.42 151.13) (xy 58.42 154.94))
    (stroke (width 0) (type default) (color 0 0 0 0))
    (uuid 8c7a984b-5d83-4763-8c29-fa2cb74745cf)
  )
  (wire (pts (xy 93.98 39.37) (xy 118.11 39.37))
    (stroke (width 0) (type default) (color 0 0 0 0))
    (uuid 905d1bdd-e440-4d7e-b9be-add2c06acbef)
  )
  (wire (pts (xy 167.64 74.93) (xy 191.77 74.93))
    (stroke (width 0) (type default) (color 0 0 0 0))
    (uuid 928b7613-62b5-40ca-84ab-c37f433caebf)
  )
  (wire (pts (xy 271.78 67.31) (xy 271.78 86.36))
    (stroke (width 0) (type default) (color 0 0 0 0))
    (uuid 950bac53-4d30-4292-bcdf-d0960fd233a6)
  )
  (wire (pts (xy 93.98 111.76) (xy 118.11 111.76))
    (stroke (width 0) (type default) (color 0 0 0 0))
    (uuid 9569eb5d-79f9-4b1c-aab2-141c593144f1)
  )
  (wire (pts (xy 58.42 130.81) (xy 58.42 135.89))
    (stroke (width 0) (type default) (color 0 0 0 0))
    (uuid 9578f8e2-512f-4556-991e-66b32d35ce71)
  )
  (wire (pts (xy 125.73 67.31) (xy 134.62 67.31))
    (stroke (width 0) (type default) (color 0 0 0 0))
    (uuid 99ad7eab-eb1a-4753-8f95-1bd106896908)
  )
  (wire (pts (xy 118.11 39.37) (xy 142.24 39.37))
    (stroke (width 0) (type default) (color 0 0 0 0))
    (uuid 9aed2f45-21f3-4fdb-a9ef-0c4df0695e9d)
  )
  (wire (pts (xy 142.24 74.93) (xy 154.94 74.93))
    (stroke (width 0) (type default) (color 0 0 0 0))
    (uuid 9b5f512c-bfd2-4998-ace7-f9f63dff2675)
  )
  (wire (pts (xy 215.9 39.37) (xy 240.03 39.37))
    (stroke (width 0) (type default) (color 0 0 0 0))
    (uuid 9ba8e07d-190e-4d78-8ab3-dfb16c53e9ef)
  )
  (wire (pts (xy 93.98 96.52) (xy 118.11 96.52))
    (stroke (width 0) (type default) (color 0 0 0 0))
    (uuid 9f71d167-ec70-4739-b6c7-ef6f8935e642)
  )
  (wire (pts (xy 45.72 59.69) (xy 69.85 59.69))
    (stroke (width 0) (type default) (color 0 0 0 0))
    (uuid a4559089-851b-4fbd-a2c5-e93c499aaebb)
  )
  (wire (pts (xy 191.77 39.37) (xy 215.9 39.37))
    (stroke (width 0) (type default) (color 0 0 0 0))
    (uuid a6c805ee-1de5-4b11-b092-3d2222d5e301)
  )
  (wire (pts (xy 191.77 96.52) (xy 215.9 96.52))
    (stroke (width 0) (type default) (color 0 0 0 0))
    (uuid a7b8344d-d561-4a96-adc6-273ac09cf7ce)
  )
  (wire (pts (xy 125.73 31.75) (xy 134.62 31.75))
    (stroke (width 0) (type default) (color 0 0 0 0))
    (uuid a9b749ba-ae8a-4638-a1bd-0c13900c3527)
  )
  (wire (pts (xy 240.03 111.76) (xy 264.16 111.76))
    (stroke (width 0) (type default) (color 0 0 0 0))
    (uuid abd8616d-6364-4e2a-9758-3f1fcdcbd438)
  )
  (wire (pts (xy 223.52 31.75) (xy 232.41 31.75))
    (stroke (width 0) (type default) (color 0 0 0 0))
    (uuid abf355f7-929f-430b-877b-32eecf6d2d92)
  )
  (wire (pts (xy 69.85 59.69) (xy 93.98 59.69))
    (stroke (width 0) (type default) (color 0 0 0 0))
    (uuid ad1be70f-477b-45f6-9f5e-5a3758acdb75)
  )
  (wire (pts (xy 240.03 96.52) (xy 264.16 96.52))
    (stroke (width 0) (type default) (color 0 0 0 0))
    (uuid ae109bf4-07fe-4d99-9fbb-36444e80df95)
  )
  (wire (pts (xy 69.85 96.52) (xy 93.98 96.52))
    (stroke (width 0) (type default) (color 0 0 0 0))
    (uuid ae54ce79-6f82-41a2-aedf-4242f97d7d1d)
  )
  (wire (pts (xy 142.24 39.37) (xy 154.94 39.37))
    (stroke (width 0) (type default) (color 0 0 0 0))
    (uuid aec5e528-c029-488c-9ab4-7c9b25cfa3fc)
  )
  (wire (pts (xy 45.72 151.13) (xy 58.42 151.13))
    (stroke (width 0) (type default) (color 0 0 0 0))
    (uuid b2ddd66b-2e03-4079-9873-fabccfc1694a)
  )
  (wire (pts (xy 53.34 143.51) (xy 62.23 143.51))
    (stroke (width 0) (type default) (color 0 0 0 0))
    (uuid b6281d2f-9334-43fb-aa3c-3b9cd0eabd81)
  )
  (wire (pts (xy 199.39 31.75) (xy 208.28 31.75))
    (stroke (width 0) (type default) (color 0 0 0 0))
    (uuid b6dde399-18e8-4b08-88cd-30e4db9352b7)
  )
  (wire (pts (xy 69.85 24.13) (xy 93.98 24.13))
    (stroke (width 0) (type default) (color 0 0 0 0))
    (uuid b9fb5172-23cd-42e5-b54e-6c7edecc0fa9)
  )
  (wire (pts (xy 77.47 143.51) (xy 91.44 143.51))
    (stroke (width 0) (type default) (color 0 0 0 0))
    (uuid bb54029c-5d96-41be-8c58-62064daa1422)
  )
  (wire (pts (xy 77.47 31.75) (xy 86.36 31.75))
    (stroke (width 0) (type default) (color 0 0 0 0))
    (uuid bcf9bea3-9c3b-40f4-b14c-d7be4fbc37ac)
  )
  (wire (pts (xy 154.94 57.15) (xy 154.94 59.69))
    (stroke (width 0) (type default) (color 0 0 0 0))
    (uuid bd09cb7e-636b-4bc8-91fe-a8c8989c36e3)
  )
  (wire (pts (xy 45.72 24.13) (xy 69.85 24.13))
    (stroke (width 0) (type default) (color 0 0 0 0))
    (uuid bf36c342-12d8-4bc8-b751-3418c3d98f31)
  )
  (wire (pts (xy 175.26 67.31) (xy 184.15 67.31))
    (stroke (width 0) (type default) (color 0 0 0 0))
    (uuid c02fe6f2-7a9c-4e17-9393-fd03ce700f40)
  )
  (wire (pts (xy 53.34 67.31) (xy 62.23 67.31))
    (stroke (width 0) (type default) (color 0 0 0 0))
    (uuid c07e85a3-546c-4da3-8c8f-67915449994e)
  )
  (wire (pts (xy 142.24 24.13) (xy 154.94 24.13))
    (stroke (width 0) (type default) (color 0 0 0 0))
    (uuid c0bf70c1-17ce-48fb-b0c6-a37f3e98c326)
  )
  (wire (pts (xy 142.24 111.76) (xy 154.94 111.76))
    (stroke (width 0) (type default) (color 0 0 0 0))
    (uuid c0e28f10-d3ec-4210-bae4-366dfa097a7e)
  )
  (wire (pts (xy 167.64 111.76) (xy 191.77 111.76))
    (stroke (width 0) (type default) (color 0 0 0 0))
    (uuid c53c156d-1304-4b40-860b-f7ce67874d72)
  )
  (wire (pts (xy 149.86 104.14) (xy 160.02 104.14))
    (stroke (width 0) (type default) (color 0 0 0 0))
    (uuid c6788df2-13b4-4ebd-b635-e723d07dc97b)
  )
  (wire (pts (xy 142.24 96.52) (xy 154.94 96.52))
    (stroke (width 0) (type default) (color 0 0 0 0))
    (uuid c91d4423-765e-4a95-8309-4c13695bc867)
  )
  (wire (pts (xy 215.9 111.76) (xy 240.03 111.76))
    (stroke (width 0) (type default) (color 0 0 0 0))
    (uuid cb752657-68b0-44f4-9258-c86f628d736a)
  )
  (wire (pts (xy 45.72 39.37) (xy 69.85 39.37))
    (stroke (width 0) (type default) (color 0 0 0 0))
    (uuid d1877121-f489-4805-8d95-3f46f96c401b)
  )
  (wire (pts (xy 53.34 31.75) (xy 62.23 31.75))
    (stroke (width 0) (type default) (color 0 0 0 0))
    (uuid d226e5a8-1110-4c0d-b843-5981fa70b0ff)
  )
  (wire (pts (xy 58.42 151.13) (xy 69.85 151.13))
    (stroke (width 0) (type default) (color 0 0 0 0))
    (uuid d34bbb8c-a829-4b01-b108-c58954405d7a)
  )
  (wire (pts (xy 240.03 59.69) (xy 264.16 59.69))
    (stroke (width 0) (type default) (color 0 0 0 0))
    (uuid da6b6883-2a97-415d-bb3c-131f46f0c264)
  )
  (wire (pts (xy 271.78 50.8) (xy 38.1 50.8))
    (stroke (width 0) (type default) (color 0 0 0 0))
    (uuid de21feb1-8b74-4fb1-98c6-e6732435008f)
  )
  (wire (pts (xy 38.1 86.36) (xy 38.1 104.14))
    (stroke (width 0) (type default) (color 0 0 0 0))
    (uuid df3ee835-1a9a-4f3b-9d7a-0fdd325bb412)
  )
  (wire (pts (xy 125.73 104.14) (xy 134.62 104.14))
    (stroke (width 0) (type default) (color 0 0 0 0))
    (uuid e77feeb2-b8bc-474a-b95b-4996d9834d63)
  )
  (wire (pts (xy 199.39 67.31) (xy 208.28 67.31))
    (stroke (width 0) (type default) (color 0 0 0 0))
    (uuid e7b1b436-4e4d-4df9-b75c-02baa2441139)
  )
  (wire (pts (xy 154.94 96.52) (xy 167.64 96.52))
    (stroke (width 0) (type default) (color 0 0 0 0))
    (uuid e8a14fda-ea4d-4b91-9b88-00264a02cd47)
  )
  (wire (pts (xy 101.6 67.31) (xy 110.49 67.31))
    (stroke (width 0) (type default) (color 0 0 0 0))
    (uuid eb07cc27-9074-4eea-8c75-3e73247a2451)
  )
  (wire (pts (xy 118.11 24.13) (xy 142.24 24.13))
    (stroke (width 0) (type default) (color 0 0 0 0))
    (uuid ee171258-b799-45e5-b3eb-ed7e156e2fd3)
  )
  (wire (pts (xy 215.9 96.52) (xy 240.03 96.52))
    (stroke (width 0) (type default) (color 0 0 0 0))
    (uuid eec4ea70-90c0-4812-a29d-04ee7df9caac)
  )
  (wire (pts (xy 175.26 31.75) (xy 184.15 31.75))
    (stroke (width 0) (type default) (color 0 0 0 0))
    (uuid efd18a5a-1599-44f7-9a5c-4c1940cd1a66)
  )
  (wire (pts (xy 38.1 50.8) (xy 38.1 67.31))
    (stroke (width 0) (type default) (color 0 0 0 0))
    (uuid efed7455-397d-45c1-b8b4-7581a6fb13b9)
  )
  (wire (pts (xy 154.94 39.37) (xy 167.64 39.37))
    (stroke (width 0) (type default) (color 0 0 0 0))
    (uuid f07e0ded-0846-4479-9fbb-3eda756c693d)
  )
  (wire (pts (xy 191.77 74.93) (xy 215.9 74.93))
    (stroke (width 0) (type default) (color 0 0 0 0))
    (uuid f12bae77-362c-43c3-8b4a-dea392ac2367)
  )
  (wire (pts (xy 191.77 111.76) (xy 215.9 111.76))
    (stroke (width 0) (type default) (color 0 0 0 0))
    (uuid f693a53e-6fcd-49b0-98c5-4e4cb2ef7db0)
  )
  (wire (pts (xy 69.85 111.76) (xy 93.98 111.76))
    (stroke (width 0) (type default) (color 0 0 0 0))
    (uuid fa564a33-d457-4def-a89f-8548bcde5459)
  )
  (wire (pts (xy 154.94 93.98) (xy 154.94 96.52))
    (stroke (width 0) (type default) (color 0 0 0 0))
    (uuid fc3b2320-45a5-4a87-867f-efec12fc9381)
  )
  (wire (pts (xy 149.86 67.31) (xy 160.02 67.31))
    (stroke (width 0) (type default) (color 0 0 0 0))
    (uuid fc66c371-a151-42b6-8c04-949fd44da72f)
  )
  (wire (pts (xy 199.39 104.14) (xy 208.28 104.14))
    (stroke (width 0) (type default) (color 0 0 0 0))
    (uuid fdf75768-f88a-4cde-82c6-1d3b0cfc3732)
  )

  (hierarchical_label "INPUT" (shape input) (at 38.1 31.75 180)
    (effects (font (size 1.27 1.27)) (justify right))
    (uuid 1a950fdc-ab35-4899-b3c2-3748d6ed5e38)
  )
  (hierarchical_label "OUTPUT" (shape input) (at 91.44 143.51 0)
    (effects (font (size 1.27 1.27)) (justify left))
    (uuid 6aba1078-ddca-424f-acd8-683238f4f96d)
  )

  (symbol (lib_id "LED:WS2812B") (at 118.11 67.31 0) (unit 1)
    (in_bom yes) (on_board yes) (fields_autoplaced)
    (uuid 06650224-420b-4003-b43b-ef3b2e8627c5)
    (property "Reference" "D?" (id 0) (at 129.54 62.9793 0))
    (property "Value" "" (id 1) (at 129.54 65.5193 0))
    (property "Footprint" "" (id 2) (at 119.38 74.93 0)
      (effects (font (size 1.27 1.27)) (justify left top) hide)
    )
    (property "Datasheet" "https://cdn-shop.adafruit.com/datasheets/WS2812B.pdf" (id 3) (at 120.65 76.835 0)
      (effects (font (size 1.27 1.27)) (justify left top) hide)
    )
    (pin "1" (uuid a501f329-8fe4-4375-b78e-9e689eb21a34))
    (pin "2" (uuid fcff295e-fa63-4767-90e7-92dc79ed282b))
    (pin "3" (uuid 78abc6d4-7f20-48af-947e-0f772172bdeb))
    (pin "4" (uuid 8708e0e0-93e4-4bba-93b1-2b396b7de36e))
  )

  (symbol (lib_id "power:+5V") (at 154.94 93.98 0) (unit 1)
    (in_bom yes) (on_board yes)
    (uuid 0b8df902-c656-42c9-ae42-7a31e9e3fc72)
    (property "Reference" "#PWR?" (id 0) (at 154.94 97.79 0)
      (effects (font (size 1.27 1.27)) hide)
    )
    (property "Value" "" (id 1) (at 154.94 90.17 0))
    (property "Footprint" "" (id 2) (at 154.94 93.98 0)
      (effects (font (size 1.27 1.27)) hide)
    )
    (property "Datasheet" "" (id 3) (at 154.94 93.98 0)
      (effects (font (size 1.27 1.27)) hide)
    )
    (pin "1" (uuid e88cd7f0-7be0-4ca9-b81f-b8bdfe5fb517))
  )

  (symbol (lib_id "LED:WS2812B") (at 240.03 31.75 0) (unit 1)
    (in_bom yes) (on_board yes) (fields_autoplaced)
    (uuid 144cf74b-0704-46e1-b48f-e9b963db66e0)
    (property "Reference" "D?" (id 0) (at 251.46 27.4193 0))
    (property "Value" "" (id 1) (at 251.46 29.9593 0))
    (property "Footprint" "" (id 2) (at 241.3 39.37 0)
      (effects (font (size 1.27 1.27)) (justify left top) hide)
    )
    (property "Datasheet" "https://cdn-shop.adafruit.com/datasheets/WS2812B.pdf" (id 3) (at 242.57 41.275 0)
      (effects (font (size 1.27 1.27)) (justify left top) hide)
    )
    (pin "1" (uuid 4d47cec3-eed0-422e-8513-32435d5ea04a))
    (pin "2" (uuid b3de3533-ffa1-4121-b6ce-2d4af18c1b26))
    (pin "3" (uuid 58775c55-541b-4cac-b06c-9f9218c4fb82))
    (pin "4" (uuid 64654689-49b7-46fe-928a-79d76f33ca39))
  )

  (symbol (lib_id "LED:WS2812B") (at 167.64 31.75 0) (unit 1)
    (in_bom yes) (on_board yes) (fields_autoplaced)
    (uuid 183b003f-2421-4987-ad15-d16cf0d38a73)
    (property "Reference" "D?" (id 0) (at 179.07 27.4193 0))
    (property "Value" "" (id 1) (at 179.07 29.9593 0))
    (property "Footprint" "" (id 2) (at 168.91 39.37 0)
      (effects (font (size 1.27 1.27)) (justify left top) hide)
    )
    (property "Datasheet" "https://cdn-shop.adafruit.com/datasheets/WS2812B.pdf" (id 3) (at 170.18 41.275 0)
      (effects (font (size 1.27 1.27)) (justify left top) hide)
    )
    (pin "1" (uuid fa3f451c-1712-43ad-81f0-4348b8848eb8))
    (pin "2" (uuid 5cfcd1c7-5d2e-4e79-b983-7ac2e2124ce6))
    (pin "3" (uuid 7b4d57fc-b621-471a-ac0b-ede63f512ef8))
    (pin "4" (uuid c08b2b47-5f0b-4f5e-95d5-876f7b1943b2))
  )

  (symbol (lib_id "LED:WS2812B") (at 69.85 104.14 0) (unit 1)
    (in_bom yes) (on_board yes) (fields_autoplaced)
    (uuid 1edcd365-ea4d-4149-a900-3874bff36009)
    (property "Reference" "D?" (id 0) (at 81.28 99.8093 0))
    (property "Value" "" (id 1) (at 81.28 102.3493 0))
    (property "Footprint" "" (id 2) (at 71.12 111.76 0)
      (effects (font (size 1.27 1.27)) (justify left top) hide)
    )
    (property "Datasheet" "https://cdn-shop.adafruit.com/datasheets/WS2812B.pdf" (id 3) (at 72.39 113.665 0)
      (effects (font (size 1.27 1.27)) (justify left top) hide)
    )
    (pin "1" (uuid 3950c1c3-6236-41ca-991e-07b369305a10))
    (pin "2" (uuid 2b9231e4-8333-4d9a-a5e7-cf5305393190))
    (pin "3" (uuid 491721e9-c71e-43a8-9548-4c9d9bb54f98))
    (pin "4" (uuid 09b4b268-7b9a-40c5-9c53-9ab13e6e961f))
  )

  (symbol (lib_id "power:GND") (at 154.94 78.74 0) (unit 1)
    (in_bom yes) (on_board yes) (fields_autoplaced)
    (uuid 21cf7d76-56c3-425c-9988-8cf50475eacd)
    (property "Reference" "#PWR?" (id 0) (at 154.94 85.09 0)
      (effects (font (size 1.27 1.27)) hide)
    )
    (property "Value" "" (id 1) (at 154.94 83.82 0))
    (property "Footprint" "" (id 2) (at 154.94 78.74 0)
      (effects (font (size 1.27 1.27)) hide)
    )
    (property "Datasheet" "" (id 3) (at 154.94 78.74 0)
      (effects (font (size 1.27 1.27)) hide)
    )
    (pin "1" (uuid 98df9f6c-8a4c-41a8-943d-04c3e86f2475))
  )

  (symbol (lib_id "LED:WS2812B") (at 240.03 67.31 0) (unit 1)
    (in_bom yes) (on_board yes) (fields_autoplaced)
    (uuid 23b49d09-81b1-4566-8193-76ad79eeffb4)
    (property "Reference" "D?" (id 0) (at 251.46 62.9793 0))
    (property "Value" "" (id 1) (at 251.46 65.5193 0))
    (property "Footprint" "" (id 2) (at 241.3 74.93 0)
      (effects (font (size 1.27 1.27)) (justify left top) hide)
    )
    (property "Datasheet" "https://cdn-shop.adafruit.com/datasheets/WS2812B.pdf" (id 3) (at 242.57 76.835 0)
      (effects (font (size 1.27 1.27)) (justify left top) hide)
    )
    (pin "1" (uuid 58a1b772-b7cb-4c56-8978-596035c95b80))
    (pin "2" (uuid a3571406-f020-4e98-818f-78c3ce62043a))
    (pin "3" (uuid d6b379c5-3a15-41e4-bbc2-2eee2cce937b))
    (pin "4" (uuid 97502e2c-214b-465a-b708-e78b8ed0a28f))
  )

  (symbol (lib_id "power:+5V") (at 154.94 57.15 0) (unit 1)
    (in_bom yes) (on_board yes)
    (uuid 26d1aad1-bb14-4cef-9e1e-8f5b76eb9916)
    (property "Reference" "#PWR?" (id 0) (at 154.94 60.96 0)
      (effects (font (size 1.27 1.27)) hide)
    )
    (property "Value" "" (id 1) (at 154.94 53.34 0))
    (property "Footprint" "" (id 2) (at 154.94 57.15 0)
      (effects (font (size 1.27 1.27)) hide)
    )
    (property "Datasheet" "" (id 3) (at 154.94 57.15 0)
      (effects (font (size 1.27 1.27)) hide)
    )
    (pin "1" (uuid b527584b-ed90-43e9-8c16-4ad20dfb61b7))
  )

  (symbol (lib_id "LED:WS2812B") (at 215.9 67.31 0) (unit 1)
    (in_bom yes) (on_board yes) (fields_autoplaced)
    (uuid 2e165ccf-6099-4b09-8eef-3bf79003a684)
    (property "Reference" "D?" (id 0) (at 227.33 62.9793 0))
    (property "Value" "" (id 1) (at 227.33 65.5193 0))
    (property "Footprint" "" (id 2) (at 217.17 74.93 0)
      (effects (font (size 1.27 1.27)) (justify left top) hide)
    )
    (property "Datasheet" "https://cdn-shop.adafruit.com/datasheets/WS2812B.pdf" (id 3) (at 218.44 76.835 0)
      (effects (font (size 1.27 1.27)) (justify left top) hide)
    )
    (pin "1" (uuid 6e151a84-0240-44e5-9028-473e67fd725d))
    (pin "2" (uuid 864b2384-75b8-42d2-b410-f35776d818ee))
    (pin "3" (uuid 93959949-ad12-497b-9550-67880babbc82))
    (pin "4" (uuid d92971cd-9cde-4352-a82c-003e98a2bdce))
  )

  (symbol (lib_id "LED:WS2812B") (at 191.77 67.31 0) (unit 1)
    (in_bom yes) (on_board yes) (fields_autoplaced)
    (uuid 34b2300d-f7ab-4d55-b595-f9e4c7e95867)
    (property "Reference" "D?" (id 0) (at 203.2 62.9793 0))
    (property "Value" "" (id 1) (at 203.2 65.5193 0))
    (property "Footprint" "" (id 2) (at 193.04 74.93 0)
      (effects (font (size 1.27 1.27)) (justify left top) hide)
    )
    (property "Datasheet" "https://cdn-shop.adafruit.com/datasheets/WS2812B.pdf" (id 3) (at 194.31 76.835 0)
      (effects (font (size 1.27 1.27)) (justify left top) hide)
    )
    (pin "1" (uuid 1806dfe6-31d0-4e5d-9728-3f0746729c90))
    (pin "2" (uuid 808341ca-2190-48c2-b836-4c958d8cfbd6))
    (pin "3" (uuid 5653a040-912a-4c4a-9703-77166b94caa6))
    (pin "4" (uuid 21bbd388-41c3-4702-9c69-fe521f0279ed))
  )

  (symbol (lib_id "LED:WS2812B") (at 69.85 143.51 0) (unit 1)
    (in_bom yes) (on_board yes) (fields_autoplaced)
    (uuid 368975d8-1cec-4d58-946c-974bb80e84dd)
    (property "Reference" "D?" (id 0) (at 81.28 139.1793 0))
    (property "Value" "" (id 1) (at 81.28 141.7193 0))
    (property "Footprint" "" (id 2) (at 71.12 151.13 0)
      (effects (font (size 1.27 1.27)) (justify left top) hide)
    )
    (property "Datasheet" "https://cdn-shop.adafruit.com/datasheets/WS2812B.pdf" (id 3) (at 72.39 153.035 0)
      (effects (font (size 1.27 1.27)) (justify left top) hide)
    )
    (pin "1" (uuid 81acce3f-1560-4028-9b81-af28a085fe32))
    (pin "2" (uuid 7e4f0958-42c0-4711-ace4-82530d58409d))
    (pin "3" (uuid fd69fe2a-203b-47fc-872d-0811984cdb4c))
    (pin "4" (uuid 3649000f-cbb6-4223-9805-efcc1e8f384c))
  )

  (symbol (lib_id "LED:WS2812B") (at 191.77 31.75 0) (unit 1)
    (in_bom yes) (on_board yes) (fields_autoplaced)
    (uuid 36e9c138-2862-4fb9-a8e8-d36295995075)
    (property "Reference" "D?" (id 0) (at 203.2 27.4193 0))
    (property "Value" "" (id 1) (at 203.2 29.9593 0))
    (property "Footprint" "" (id 2) (at 193.04 39.37 0)
      (effects (font (size 1.27 1.27)) (justify left top) hide)
    )
    (property "Datasheet" "https://cdn-shop.adafruit.com/datasheets/WS2812B.pdf" (id 3) (at 194.31 41.275 0)
      (effects (font (size 1.27 1.27)) (justify left top) hide)
    )
    (pin "1" (uuid 00fa7e23-076d-493e-9a46-51f2fa8be2fd))
    (pin "2" (uuid 1580d8b9-0405-485d-8287-754605030290))
    (pin "3" (uuid df2e91a1-020b-4e81-ab34-367e7f0cd8e1))
    (pin "4" (uuid 288359ed-2c73-4134-b9fa-1948a533596e))
  )

  (symbol (lib_id "LED:WS2812B") (at 93.98 67.31 0) (unit 1)
    (in_bom yes) (on_board yes) (fields_autoplaced)
    (uuid 38d056da-9c7e-4820-b5b7-5a289012636c)
    (property "Reference" "D?" (id 0) (at 105.41 62.9793 0))
    (property "Value" "" (id 1) (at 105.41 65.5193 0))
    (property "Footprint" "" (id 2) (at 95.25 74.93 0)
      (effects (font (size 1.27 1.27)) (justify left top) hide)
    )
    (property "Datasheet" "https://cdn-shop.adafruit.com/datasheets/WS2812B.pdf" (id 3) (at 96.52 76.835 0)
      (effects (font (size 1.27 1.27)) (justify left top) hide)
    )
    (pin "1" (uuid 2af0398a-41c3-4dc3-a36a-a6d80799d8d3))
    (pin "2" (uuid 2a1b8aa0-5e69-4413-9d89-668dd3d14fa0))
    (pin "3" (uuid 2e6ddae2-0930-4c32-90b5-d1956a30731c))
    (pin "4" (uuid ea61571d-3605-4126-8f8a-6b0e4bb6969a))
  )

  (symbol (lib_id "LED:WS2812B") (at 45.72 143.51 0) (unit 1)
    (in_bom yes) (on_board yes) (fields_autoplaced)
    (uuid 40a2dc77-aa0c-4cf8-bdf3-9c02cf7a306e)
    (property "Reference" "D?" (id 0) (at 57.15 139.1793 0))
    (property "Value" "" (id 1) (at 57.15 141.7193 0))
    (property "Footprint" "" (id 2) (at 46.99 151.13 0)
      (effects (font (size 1.27 1.27)) (justify left top) hide)
    )
    (property "Datasheet" "https://cdn-shop.adafruit.com/datasheets/WS2812B.pdf" (id 3) (at 48.26 153.035 0)
      (effects (font (size 1.27 1.27)) (justify left top) hide)
    )
    (pin "1" (uuid 088eb228-67e3-4648-b84b-b8cc0cc78cf5))
    (pin "2" (uuid c2acb632-4e58-4a19-accd-d57d102f5b4e))
    (pin "3" (uuid 15c3dda9-51a4-45c4-9d55-da1093e56234))
    (pin "4" (uuid 28b9edd6-7221-4944-a83b-126cd17b5423))
  )

  (symbol (lib_id "power:+5V") (at 154.94 21.59 0) (unit 1)
    (in_bom yes) (on_board yes)
    (uuid 50832d5c-3c1f-4028-ab95-cf6b0c0283a9)
    (property "Reference" "#PWR?" (id 0) (at 154.94 25.4 0)
      (effects (font (size 1.27 1.27)) hide)
    )
    (property "Value" "" (id 1) (at 154.94 17.78 0))
    (property "Footprint" "" (id 2) (at 154.94 21.59 0)
      (effects (font (size 1.27 1.27)) hide)
    )
    (property "Datasheet" "" (id 3) (at 154.94 21.59 0)
      (effects (font (size 1.27 1.27)) hide)
    )
    (pin "1" (uuid a750d137-d966-4d7d-9443-7caccae64b48))
  )

  (symbol (lib_id "LED:WS2812B") (at 142.24 104.14 0) (unit 1)
    (in_bom yes) (on_board yes) (fields_autoplaced)
    (uuid 54bd58c7-d1bd-42a8-b070-cacf60277362)
    (property "Reference" "D?" (id 0) (at 153.67 99.8093 0))
    (property "Value" "" (id 1) (at 153.67 102.3493 0))
    (property "Footprint" "" (id 2) (at 143.51 111.76 0)
      (effects (font (size 1.27 1.27)) (justify left top) hide)
    )
    (property "Datasheet" "https://cdn-shop.adafruit.com/datasheets/WS2812B.pdf" (id 3) (at 144.78 113.665 0)
      (effects (font (size 1.27 1.27)) (justify left top) hide)
    )
    (pin "1" (uuid 523c2706-2f9e-47c0-898d-a2394d5baf11))
    (pin "2" (uuid 920d1f4a-b844-4326-a11a-626c34a30e17))
    (pin "3" (uuid 39d07567-d74d-4e89-89df-037511379462))
    (pin "4" (uuid caa3a533-0de1-4f70-974b-4a28e38e2be7))
  )

  (symbol (lib_id "LED:WS2812B") (at 264.16 104.14 0) (unit 1)
    (in_bom yes) (on_board yes) (fields_autoplaced)
    (uuid 5bc16fdd-e368-4f42-97c4-c277a86aed1f)
    (property "Reference" "D?" (id 0) (at 275.59 99.8093 0))
    (property "Value" "" (id 1) (at 275.59 102.3493 0))
    (property "Footprint" "" (id 2) (at 265.43 111.76 0)
      (effects (font (size 1.27 1.27)) (justify left top) hide)
    )
    (property "Datasheet" "https://cdn-shop.adafruit.com/datasheets/WS2812B.pdf" (id 3) (at 266.7 113.665 0)
      (effects (font (size 1.27 1.27)) (justify left top) hide)
    )
    (pin "1" (uuid fb626aa7-869f-475b-9c95-e19b6425013c))
    (pin "2" (uuid 006f1367-1697-4a44-96ac-4dca963a34aa))
    (pin "3" (uuid b3d59267-4931-4ac7-9e10-8110cd3a066e))
    (pin "4" (uuid 2029ed73-8194-4224-804b-0fa0d33c618e))
  )

  (symbol (lib_id "LED:WS2812B") (at 240.03 104.14 0) (unit 1)
    (in_bom yes) (on_board yes) (fields_autoplaced)
    (uuid 6455fafb-7dd6-4145-a30e-a039bc332a21)
    (property "Reference" "D?" (id 0) (at 251.46 99.8093 0))
    (property "Value" "" (id 1) (at 251.46 102.3493 0))
    (property "Footprint" "" (id 2) (at 241.3 111.76 0)
      (effects (font (size 1.27 1.27)) (justify left top) hide)
    )
    (property "Datasheet" "https://cdn-shop.adafruit.com/datasheets/WS2812B.pdf" (id 3) (at 242.57 113.665 0)
      (effects (font (size 1.27 1.27)) (justify left top) hide)
    )
    (pin "1" (uuid 9b4a0fe5-472b-4904-b4e8-166a1ba779b8))
    (pin "2" (uuid a971a183-c050-4198-814a-287a83a4752b))
    (pin "3" (uuid 33c6bbb6-bb23-495c-9caf-077d6f4eadcf))
    (pin "4" (uuid 6ed279f9-7a91-437b-b9b8-6425952729ad))
  )

  (symbol (lib_id "LED:WS2812B") (at 142.24 67.31 0) (unit 1)
    (in_bom yes) (on_board yes) (fields_autoplaced)
    (uuid 6a34aad3-4a5e-4bc5-9bc8-9d4f6f224ee3)
    (property "Reference" "D?" (id 0) (at 153.67 62.9793 0))
    (property "Value" "" (id 1) (at 153.67 65.5193 0))
    (property "Footprint" "" (id 2) (at 143.51 74.93 0)
      (effects (font (size 1.27 1.27)) (justify left top) hide)
    )
    (property "Datasheet" "https://cdn-shop.adafruit.com/datasheets/WS2812B.pdf" (id 3) (at 144.78 76.835 0)
      (effects (font (size 1.27 1.27)) (justify left top) hide)
    )
    (pin "1" (uuid faddeee0-7d70-4349-9937-e150e3e31701))
    (pin "2" (uuid 15086421-6a90-4a17-9455-91e36505b576))
    (pin "3" (uuid 7bd8bcb6-b267-4d26-beb5-b872ffd82351))
    (pin "4" (uuid 24502e45-62ba-4f83-94c6-85f4bfc164a4))
  )

  (symbol (lib_id "LED:WS2812B") (at 264.16 31.75 0) (unit 1)
    (in_bom yes) (on_board yes) (fields_autoplaced)
    (uuid 759a8ac6-a791-47f7-9f2e-a843784375b0)
    (property "Reference" "D?" (id 0) (at 275.59 27.4193 0))
    (property "Value" "" (id 1) (at 275.59 29.9593 0))
    (property "Footprint" "" (id 2) (at 265.43 39.37 0)
      (effects (font (size 1.27 1.27)) (justify left top) hide)
    )
    (property "Datasheet" "https://cdn-shop.adafruit.com/datasheets/WS2812B.pdf" (id 3) (at 266.7 41.275 0)
      (effects (font (size 1.27 1.27)) (justify left top) hide)
    )
    (pin "1" (uuid b712825b-56bb-4188-b995-8e14f6af60b2))
    (pin "2" (uuid 1b7628d0-5ce1-41e6-82d1-4b99aeae1335))
    (pin "3" (uuid f816c1df-a899-488d-b95b-bd8e5923482a))
    (pin "4" (uuid f7acbc86-94bd-4818-9784-3c1694a82067))
  )

  (symbol (lib_id "LED:WS2812B") (at 118.11 31.75 0) (unit 1)
    (in_bom yes) (on_board yes) (fields_autoplaced)
    (uuid 81b52a4e-3ab6-48b8-94a2-8346da34f4c3)
    (property "Reference" "D?" (id 0) (at 129.54 27.4193 0))
    (property "Value" "" (id 1) (at 129.54 29.9593 0))
    (property "Footprint" "" (id 2) (at 119.38 39.37 0)
      (effects (font (size 1.27 1.27)) (justify left top) hide)
    )
    (property "Datasheet" "https://cdn-shop.adafruit.com/datasheets/WS2812B.pdf" (id 3) (at 120.65 41.275 0)
      (effects (font (size 1.27 1.27)) (justify left top) hide)
    )
    (pin "1" (uuid e6b91c27-f04c-48aa-9b17-23d19cb89211))
    (pin "2" (uuid acf84f6d-8a85-4ab6-9efd-362772119ba5))
    (pin "3" (uuid ea34cf87-b285-4b6b-8665-8b0661f43082))
    (pin "4" (uuid 63c5ba5f-6a30-47df-a0a4-abc1875e5def))
  )

  (symbol (lib_id "LED:WS2812B") (at 215.9 31.75 0) (unit 1)
    (in_bom yes) (on_board yes) (fields_autoplaced)
    (uuid 8200da4a-d774-4eb2-a366-0a4ca27b26d4)
    (property "Reference" "D?" (id 0) (at 227.33 27.4193 0))
    (property "Value" "" (id 1) (at 227.33 29.9593 0))
    (property "Footprint" "" (id 2) (at 217.17 39.37 0)
      (effects (font (size 1.27 1.27)) (justify left top) hide)
    )
    (property "Datasheet" "https://cdn-shop.adafruit.com/datasheets/WS2812B.pdf" (id 3) (at 218.44 41.275 0)
      (effects (font (size 1.27 1.27)) (justify left top) hide)
    )
    (pin "1" (uuid b6842af1-f134-4dbc-a265-0323c8f848f0))
    (pin "2" (uuid 1a58fb08-e3c1-41b9-be98-afae8160bcae))
    (pin "3" (uuid 567d1b37-9f79-4495-926c-2a867681f9f6))
    (pin "4" (uuid a24cffd9-45b1-4d41-97db-14ecbe263366))
  )

  (symbol (lib_id "LED:WS2812B") (at 45.72 31.75 0) (unit 1)
    (in_bom yes) (on_board yes) (fields_autoplaced)
    (uuid 85af238d-1afe-4939-a7d5-f0daae4b6bdb)
    (property "Reference" "D?" (id 0) (at 57.15 27.4193 0))
    (property "Value" "" (id 1) (at 57.15 29.9593 0))
    (property "Footprint" "" (id 2) (at 46.99 39.37 0)
      (effects (font (size 1.27 1.27)) (justify left top) hide)
    )
    (property "Datasheet" "https://cdn-shop.adafruit.com/datasheets/WS2812B.pdf" (id 3) (at 48.26 41.275 0)
      (effects (font (size 1.27 1.27)) (justify left top) hide)
    )
    (pin "1" (uuid 981e8e31-f2c4-4710-951a-5dba89a5cfee))
    (pin "2" (uuid 55e91f5b-2a88-4c78-9f19-5a11b78852ea))
    (pin "3" (uuid 7532940f-a5d3-48e4-9218-08794511c82c))
    (pin "4" (uuid 15813664-8112-4b7a-a0e3-8a910425eae4))
  )

  (symbol (lib_id "LED:WS2812B") (at 69.85 31.75 0) (unit 1)
    (in_bom yes) (on_board yes) (fields_autoplaced)
    (uuid 8a1e37f1-1a8f-4836-8d6f-5fffa6c0f348)
    (property "Reference" "D?" (id 0) (at 81.28 27.4193 0))
    (property "Value" "" (id 1) (at 81.28 29.9593 0))
    (property "Footprint" "" (id 2) (at 71.12 39.37 0)
      (effects (font (size 1.27 1.27)) (justify left top) hide)
    )
    (property "Datasheet" "https://cdn-shop.adafruit.com/datasheets/WS2812B.pdf" (id 3) (at 72.39 41.275 0)
      (effects (font (size 1.27 1.27)) (justify left top) hide)
    )
    (pin "1" (uuid 0c3a8c03-88f7-48f2-bd39-ef99bb6ca1f9))
    (pin "2" (uuid a2fdf3a8-6289-41cc-85bb-9dc0f2a3d771))
    (pin "3" (uuid 28dbd833-2d2f-4d42-a3ad-ef58efed60fe))
    (pin "4" (uuid 4f3b7cdc-5b3a-4ede-be88-ec63cd04ffe6))
  )

  (symbol (lib_id "LED:WS2812B") (at 93.98 31.75 0) (unit 1)
    (in_bom yes) (on_board yes) (fields_autoplaced)
    (uuid 99572703-cc03-4cce-856c-ad32fa03a991)
    (property "Reference" "D?" (id 0) (at 105.41 27.4193 0))
    (property "Value" "" (id 1) (at 105.41 29.9593 0))
    (property "Footprint" "" (id 2) (at 95.25 39.37 0)
      (effects (font (size 1.27 1.27)) (justify left top) hide)
    )
    (property "Datasheet" "https://cdn-shop.adafruit.com/datasheets/WS2812B.pdf" (id 3) (at 96.52 41.275 0)
      (effects (font (size 1.27 1.27)) (justify left top) hide)
    )
    (pin "1" (uuid b3eaf4b9-eab0-4f5f-9e43-335511862546))
    (pin "2" (uuid a574b902-0439-4669-b45c-dc3e98c16367))
    (pin "3" (uuid 813f0e7b-ec3a-423c-9dca-452376909a44))
    (pin "4" (uuid 20cc5f62-bb9c-4142-b706-754c101fe04b))
  )

  (symbol (lib_id "power:GND") (at 154.94 43.18 0) (unit 1)
    (in_bom yes) (on_board yes) (fields_autoplaced)
    (uuid aa093f07-9d71-4c02-af13-f6d5bc44fdcd)
    (property "Reference" "#PWR?" (id 0) (at 154.94 49.53 0)
      (effects (font (size 1.27 1.27)) hide)
    )
    (property "Value" "" (id 1) (at 154.94 48.26 0))
    (property "Footprint" "" (id 2) (at 154.94 43.18 0)
      (effects (font (size 1.27 1.27)) hide)
    )
    (property "Datasheet" "" (id 3) (at 154.94 43.18 0)
      (effects (font (size 1.27 1.27)) hide)
    )
    (pin "1" (uuid 2a00e3a3-4956-401e-9665-d1815f56e43b))
  )

  (symbol (lib_id "LED:WS2812B") (at 191.77 104.14 0) (unit 1)
    (in_bom yes) (on_board yes) (fields_autoplaced)
    (uuid af83fcef-9490-4c28-8532-c6f48f54a9ec)
    (property "Reference" "D?" (id 0) (at 203.2 99.8093 0))
    (property "Value" "" (id 1) (at 203.2 102.3493 0))
    (property "Footprint" "" (id 2) (at 193.04 111.76 0)
      (effects (font (size 1.27 1.27)) (justify left top) hide)
    )
    (property "Datasheet" "https://cdn-shop.adafruit.com/datasheets/WS2812B.pdf" (id 3) (at 194.31 113.665 0)
      (effects (font (size 1.27 1.27)) (justify left top) hide)
    )
    (pin "1" (uuid 4bf145aa-d588-47e1-9153-df896f618423))
    (pin "2" (uuid a3d7bbea-ffbb-4a0a-ae2f-560f3b352a58))
    (pin "3" (uuid f03939ea-310f-4e40-8180-b4f4f43cd6ce))
    (pin "4" (uuid 5504e217-1081-4611-a2f9-e930da1b3ac0))
  )

  (symbol (lib_id "LED:WS2812B") (at 93.98 104.14 0) (unit 1)
    (in_bom yes) (on_board yes) (fields_autoplaced)
    (uuid b20142a0-2767-4738-9fac-7927851782b7)
    (property "Reference" "D?" (id 0) (at 105.41 99.8093 0))
    (property "Value" "" (id 1) (at 105.41 102.3493 0))
    (property "Footprint" "" (id 2) (at 95.25 111.76 0)
      (effects (font (size 1.27 1.27)) (justify left top) hide)
    )
    (property "Datasheet" "https://cdn-shop.adafruit.com/datasheets/WS2812B.pdf" (id 3) (at 96.52 113.665 0)
      (effects (font (size 1.27 1.27)) (justify left top) hide)
    )
    (pin "1" (uuid 9192c840-b6b3-4428-956e-d107223305e0))
    (pin "2" (uuid 4df2346f-83f5-476b-b40b-b3be6023a02a))
    (pin "3" (uuid 104c84d4-2657-4ebb-bb66-8ddefc688218))
    (pin "4" (uuid cb990a13-0f57-4fa7-a4a0-309966929ef4))
  )

  (symbol (lib_id "LED:WS2812B") (at 264.16 67.31 0) (unit 1)
    (in_bom yes) (on_board yes) (fields_autoplaced)
    (uuid c1642349-ed2b-4103-bf2f-3b9acdee06e2)
    (property "Reference" "D?" (id 0) (at 275.59 62.9793 0))
    (property "Value" "" (id 1) (at 275.59 65.5193 0))
    (property "Footprint" "" (id 2) (at 265.43 74.93 0)
      (effects (font (size 1.27 1.27)) (justify left top) hide)
    )
    (property "Datasheet" "https://cdn-shop.adafruit.com/datasheets/WS2812B.pdf" (id 3) (at 266.7 76.835 0)
      (effects (font (size 1.27 1.27)) (justify left top) hide)
    )
    (pin "1" (uuid e06cce25-4bb0-48bb-954b-bb3c609eb3ac))
    (pin "2" (uuid 9e6c1f65-07f3-435b-8a98-0de31b2cd677))
    (pin "3" (uuid 0c52cf1c-1ec5-4478-815d-257391445d9a))
    (pin "4" (uuid 89ba7e23-8835-42ef-9b25-71228567f8ec))
  )

  (symbol (lib_id "LED:WS2812B") (at 215.9 104.14 0) (unit 1)
    (in_bom yes) (on_board yes) (fields_autoplaced)
    (uuid c4f00736-95ec-4452-8965-2edca74a6a91)
    (property "Reference" "D?" (id 0) (at 227.33 99.8093 0))
    (property "Value" "" (id 1) (at 227.33 102.3493 0))
    (property "Footprint" "" (id 2) (at 217.17 111.76 0)
      (effects (font (size 1.27 1.27)) (justify left top) hide)
    )
    (property "Datasheet" "https://cdn-shop.adafruit.com/datasheets/WS2812B.pdf" (id 3) (at 218.44 113.665 0)
      (effects (font (size 1.27 1.27)) (justify left top) hide)
    )
    (pin "1" (uuid 93c6cc80-9a13-4070-bf6c-2224415f534c))
    (pin "2" (uuid 01d07ee3-12f9-462e-bd47-6f023c4e1e1c))
    (pin "3" (uuid 3ba15efd-0e75-4810-b18c-7dac411b447b))
    (pin "4" (uuid 8fd38d41-a1d1-4700-b9ae-8254dbfa67a7))
  )

  (symbol (lib_id "LED:WS2812B") (at 45.72 67.31 0) (unit 1)
    (in_bom yes) (on_board yes) (fields_autoplaced)
    (uuid c68b31e9-ab6c-45d2-94cf-5adcdfb496b1)
    (property "Reference" "D?" (id 0) (at 57.15 62.9793 0))
    (property "Value" "" (id 1) (at 57.15 65.5193 0))
    (property "Footprint" "" (id 2) (at 46.99 74.93 0)
      (effects (font (size 1.27 1.27)) (justify left top) hide)
    )
    (property "Datasheet" "https://cdn-shop.adafruit.com/datasheets/WS2812B.pdf" (id 3) (at 48.26 76.835 0)
      (effects (font (size 1.27 1.27)) (justify left top) hide)
    )
    (pin "1" (uuid ac304e34-c664-4c50-a656-a6778375ef01))
    (pin "2" (uuid 365f77c1-807d-4a5f-b305-0817eb08b2f6))
    (pin "3" (uuid 15d720bd-3b4c-4ef7-9f79-fd74fd28bbe4))
    (pin "4" (uuid 822ae74e-8fd9-4d1d-8fb1-7e1b7cb12328))
  )

  (symbol (lib_id "LED:WS2812B") (at 118.11 104.14 0) (unit 1)
    (in_bom yes) (on_board yes) (fields_autoplaced)
    (uuid c9d647b8-17c6-4371-8095-d1c351e6d107)
    (property "Reference" "D?" (id 0) (at 129.54 99.8093 0))
    (property "Value" "" (id 1) (at 129.54 102.3493 0))
    (property "Footprint" "" (id 2) (at 119.38 111.76 0)
      (effects (font (size 1.27 1.27)) (justify left top) hide)
    )
    (property "Datasheet" "https://cdn-shop.adafruit.com/datasheets/WS2812B.pdf" (id 3) (at 120.65 113.665 0)
      (effects (font (size 1.27 1.27)) (justify left top) hide)
    )
    (pin "1" (uuid 59344b90-9d19-4c81-90c3-59faf1c2128a))
    (pin "2" (uuid 46db2ccd-34e4-4130-907b-cd2d2c8d169b))
    (pin "3" (uuid 50bf2126-6aad-4c54-bb66-3f189d94ade2))
    (pin "4" (uuid d46fb7e1-e8fb-4490-ba45-2454f1e2bd5b))
  )

  (symbol (lib_id "LED:WS2812B") (at 167.64 67.31 0) (unit 1)
    (in_bom yes) (on_board yes) (fields_autoplaced)
    (uuid cd8b7d4f-0631-40c3-aa93-34cceff33f10)
    (property "Reference" "D?" (id 0) (at 179.07 62.9793 0))
    (property "Value" "" (id 1) (at 179.07 65.5193 0))
    (property "Footprint" "" (id 2) (at 168.91 74.93 0)
      (effects (font (size 1.27 1.27)) (justify left top) hide)
    )
    (property "Datasheet" "https://cdn-shop.adafruit.com/datasheets/WS2812B.pdf" (id 3) (at 170.18 76.835 0)
      (effects (font (size 1.27 1.27)) (justify left top) hide)
    )
    (pin "1" (uuid b40b3e6c-573e-4410-91e2-f6734377eecf))
    (pin "2" (uuid 3d9d8acc-a857-43ca-923c-3be00d2f2039))
    (pin "3" (uuid 7c5a1912-e9e9-43db-b121-c59b2177c6c4))
    (pin "4" (uuid e3b24210-fce0-461c-9610-b043ab20c4b8))
  )

  (symbol (lib_id "LED:WS2812B") (at 142.24 31.75 0) (unit 1)
    (in_bom yes) (on_board yes) (fields_autoplaced)
    (uuid d1ab0a2e-4f3d-45d5-a405-16dc518895ce)
    (property "Reference" "D?" (id 0) (at 153.67 27.4193 0))
    (property "Value" "" (id 1) (at 153.67 29.9593 0))
    (property "Footprint" "" (id 2) (at 143.51 39.37 0)
      (effects (font (size 1.27 1.27)) (justify left top) hide)
    )
    (property "Datasheet" "https://cdn-shop.adafruit.com/datasheets/WS2812B.pdf" (id 3) (at 144.78 41.275 0)
      (effects (font (size 1.27 1.27)) (justify left top) hide)
    )
    (pin "1" (uuid 1c747254-368a-478c-bb83-edfef1ade53f))
    (pin "2" (uuid fb1716b5-6a93-4d8e-b31d-02d7c8de5205))
    (pin "3" (uuid bc3e3d64-8446-4e1f-a356-ff635479e86a))
    (pin "4" (uuid 647739e6-0391-4584-813d-a3045bab073d))
  )

  (symbol (lib_id "LED:WS2812B") (at 45.72 104.14 0) (unit 1)
    (in_bom yes) (on_board yes) (fields_autoplaced)
    (uuid d9ff841a-ae69-446b-b3b7-4b25660d1996)
    (property "Reference" "D?" (id 0) (at 57.15 99.8093 0))
    (property "Value" "" (id 1) (at 57.15 102.3493 0))
    (property "Footprint" "" (id 2) (at 46.99 111.76 0)
      (effects (font (size 1.27 1.27)) (justify left top) hide)
    )
    (property "Datasheet" "https://cdn-shop.adafruit.com/datasheets/WS2812B.pdf" (id 3) (at 48.26 113.665 0)
      (effects (font (size 1.27 1.27)) (justify left top) hide)
    )
    (pin "1" (uuid 8e64643c-22a2-42ab-8847-834fd64cf01c))
    (pin "2" (uuid 3dd8effe-26b6-4ac6-96a0-20514f1e8891))
    (pin "3" (uuid fa2db7b1-4248-40de-8676-c1e75be2e3c8))
    (pin "4" (uuid 89c3c53b-4afb-4b28-964f-63bb8d24eedb))
  )

  (symbol (lib_id "LED:WS2812B") (at 69.85 67.31 0) (unit 1)
    (in_bom yes) (on_board yes) (fields_autoplaced)
    (uuid dd47668e-d22e-4d5c-bcff-6232885eede1)
    (property "Reference" "D?" (id 0) (at 81.28 62.9793 0))
    (property "Value" "" (id 1) (at 81.28 65.5193 0))
    (property "Footprint" "" (id 2) (at 71.12 74.93 0)
      (effects (font (size 1.27 1.27)) (justify left top) hide)
    )
    (property "Datasheet" "https://cdn-shop.adafruit.com/datasheets/WS2812B.pdf" (id 3) (at 72.39 76.835 0)
      (effects (font (size 1.27 1.27)) (justify left top) hide)
    )
    (pin "1" (uuid 72b0a230-f223-447f-9a30-0680f54b4da6))
    (pin "2" (uuid e2468329-0907-40fd-8ad0-7b98c3428091))
    (pin "3" (uuid cf57d96e-e758-4673-ab1d-9673d02e87bc))
    (pin "4" (uuid 7b030320-bdd6-4b9d-b862-58027a695b92))
  )

  (symbol (lib_id "power:GND") (at 154.94 115.57 0) (unit 1)
    (in_bom yes) (on_board yes) (fields_autoplaced)
    (uuid ddfa8168-e8fb-40fd-913e-774a9cde9165)
    (property "Reference" "#PWR?" (id 0) (at 154.94 121.92 0)
      (effects (font (size 1.27 1.27)) hide)
    )
    (property "Value" "" (id 1) (at 154.94 120.65 0))
    (property "Footprint" "" (id 2) (at 154.94 115.57 0)
      (effects (font (size 1.27 1.27)) hide)
    )
    (property "Datasheet" "" (id 3) (at 154.94 115.57 0)
      (effects (font (size 1.27 1.27)) hide)
    )
    (pin "1" (uuid 6466bffb-36e4-4975-a8f6-69c616501bdf))
  )

  (symbol (lib_id "LED:WS2812B") (at 167.64 104.14 0) (unit 1)
    (in_bom yes) (on_board yes) (fields_autoplaced)
    (uuid e9cf8e9f-408c-4f56-a284-45c102b0f906)
    (property "Reference" "D?" (id 0) (at 179.07 99.8093 0))
    (property "Value" "" (id 1) (at 179.07 102.3493 0))
    (property "Footprint" "" (id 2) (at 168.91 111.76 0)
      (effects (font (size 1.27 1.27)) (justify left top) hide)
    )
    (property "Datasheet" "https://cdn-shop.adafruit.com/datasheets/WS2812B.pdf" (id 3) (at 170.18 113.665 0)
      (effects (font (size 1.27 1.27)) (justify left top) hide)
    )
    (pin "1" (uuid a13b8cd5-8283-403b-8324-586527fcc123))
    (pin "2" (uuid 3fa12d14-d6b4-4264-8c82-df7e361c2967))
    (pin "3" (uuid c0d7c45d-1ba9-44a8-93d4-f64fa122c354))
    (pin "4" (uuid bfbda076-35f3-4796-81b7-2a1c5ce47ae8))
  )

  (symbol (lib_id "power:+5V") (at 58.42 130.81 0) (unit 1)
    (in_bom yes) (on_board yes)
    (uuid eda6cb87-8d87-4744-ab90-0de283ac7fa7)
    (property "Reference" "#PWR?" (id 0) (at 58.42 134.62 0)
      (effects (font (size 1.27 1.27)) hide)
    )
    (property "Value" "" (id 1) (at 58.42 127 0))
    (property "Footprint" "" (id 2) (at 58.42 130.81 0)
      (effects (font (size 1.27 1.27)) hide)
    )
    (property "Datasheet" "" (id 3) (at 58.42 130.81 0)
      (effects (font (size 1.27 1.27)) hide)
    )
    (pin "1" (uuid d062c7cf-7764-4145-a131-4a91fea45d6f))
  )

  (symbol (lib_id "power:GND") (at 58.42 154.94 0) (unit 1)
    (in_bom yes) (on_board yes) (fields_autoplaced)
    (uuid f222b635-a73d-4d0d-bc72-5c7d4c5cbe9a)
    (property "Reference" "#PWR?" (id 0) (at 58.42 161.29 0)
      (effects (font (size 1.27 1.27)) hide)
    )
    (property "Value" "" (id 1) (at 58.42 160.02 0))
    (property "Footprint" "" (id 2) (at 58.42 154.94 0)
      (effects (font (size 1.27 1.27)) hide)
    )
    (property "Datasheet" "" (id 3) (at 58.42 154.94 0)
      (effects (font (size 1.27 1.27)) hide)
    )
    (pin "1" (uuid c31a89a1-b74a-42cf-b644-fd6926660c7d))
  )
)
